{
  "report": "1.0",
  "data": {
    "entries": [
      {
        "Date": "1550259200",
        "Followers": "8",
        "Following": "43"
      },
      {
        "Date": "1550295585",
        "Followers": "12",
        "Following": "130"
      },
      {
        "Date": "1550402101",
        "Followers": "30",
        "Following": "49"
      },
      {
        "Date": "1550440801",
        "Followers": "36",
        "Following": "54"
      },
      {
        "Date": "1550527201",
        "Followers": "52",
        "Following": "54"
      },
      {
        "Date": "1550613601",
        "Followers": "53",
        "Following": "42"
      },
      {
        "Date": "1550700001",
        "Followers": "56",
        "Following": "44"
      },
      {
        "Date": "1550786401",
        "Followers": "55",
        "Following": "44"
      },
      {
        "Date": "1551044426",
        "HumanDate": "24-02-2019-23-40",
        "Followers": "93",
        "Following": "204"
      },
      {
        "Date": "1551132601",
        "HumanDate": "26-02-2019-00-10",
        "Followers": "107",
        "Following": "179"
      },
      {
        "Date": "1551219001",
        "HumanDate": "27-02-2019-00-10",
        "Followers": "110",
        "Following": "78"
      },
      {
        "Date": "1551305402",
        "HumanDate": "28-02-2019-00-10",
        "Followers": "120",
        "Following": "92"
      },
      {
        "Date": "1551391801",
        "HumanDate": "01-03-2019-00-10",
        "Followers": "132",
        "Following": "89"
      },
      {
        "Date": "1551478201",
        "HumanDate": "02-03-2019-00-10",
        "Followers": "139",
        "Following": "80"
      },
      {
        "Date": "1551564601",
        "HumanDate": "03-03-2019-00-10",
        "Followers": "148",
        "Following": "74"
      },
      {
        "Date": "1551651001",
        "HumanDate": "04-03-2019-00-10",
        "Followers": "155",
        "Following": "83"
      },
      {
        "Date": "1551737401",
        "HumanDate": "05-03-2019-00-10",
        "Followers": "162",
        "Following": "75"
      },
      {
        "Date": "1551823801",
        "HumanDate": "06-03-2019-00-10",
        "Followers": "165",
        "Following": "71"
      },
      {
        "Date": "1551910201",
        "HumanDate": "07-03-2019-00-10",
        "Followers": "164",
        "Following": "66"
      },
      {
        "Date": "1551996601",
        "HumanDate": "08-03-2019-00-10",
        "Followers": "165",
        "Following": "221"
      },
      {
        "Date": "1552082761",
        "HumanDate": "09-03-2019-00-06",
        "Followers": "165",
        "Following": "221"
      },
      {
        "Date": "1552169161",
        "HumanDate": "10-03-2019-00-06",
        "Followers": "165",
        "Following": "221"
      },
      {
        "Date": "1552255561",
        "HumanDate": "11-03-2019-00-06",
        "Followers": "165",
        "Following": "221"
      },
      {
        "Date": "1552341961",
        "HumanDate": "12-03-2019-00-06",
        "Followers": "165",
        "Following": "221"
      },
      {
        "Date": "1552428361",
        "HumanDate": "13-03-2019-00-06",
        "Followers": "165",
        "Following": "221"
      },
      {
        "Date": "1552514761",
        "HumanDate": "14-03-2019-00-06",
        "Followers": "165",
        "Following": "221"
      },
      {
        "Date": "1552601161",
        "HumanDate": "15-03-2019-00-06",
        "Followers": "165",
        "Following": "221"
      },
      {
        "Date": "1552687561",
        "HumanDate": "16-03-2019-00-06",
        "Followers": "165",
        "Following": "221"
      },
      {
        "Date": "1552773961",
        "HumanDate": "17-03-2019-00-06",
        "Followers": "165",
        "Following": "221"
      },
      {
        "Date": "1552860361",
        "HumanDate": "18-03-2019-00-06",
        "Followers": "165",
        "Following": "221"
      },
      {
        "Date": "1552946761",
        "HumanDate": "19-03-2019-00-06",
        "Followers": "165",
        "Following": "221"
      },
      {
        "Date": "1553033161",
        "HumanDate": "20-03-2019-00-06",
        "Followers": "165",
        "Following": "221"
      },
      {
        "Date": "1553119561",
        "HumanDate": "21-03-2019-00-06",
        "Followers": "165",
        "Following": "221"
      },
      {
        "Date": "1553205961",
        "HumanDate": "22-03-2019-00-06",
        "Followers": "165",
        "Following": "221"
      },
      {
        "Date": "1553292361",
        "HumanDate": "23-03-2019-00-06",
        "Followers": "165",
        "Following": "221"
      },
      {
        "Date": "1553378761",
        "HumanDate": "24-03-2019-00-06",
        "Followers": "165",
        "Following": "221"
      },
      {
        "Date": "1553465161",
        "HumanDate": "25-03-2019-00-06",
        "Followers": "165",
        "Following": "221"
      },
      {
        "Date": "1553551561",
        "HumanDate": "26-03-2019-00-06",
        "Followers": "165",
        "Following": "221"
      },
      {
        "Date": "1553637961",
        "HumanDate": "27-03-2019-00-06",
        "Followers": "165",
        "Following": "221"
      },
      {
        "Date": "1553724361",
        "HumanDate": "28-03-2019-00-06",
        "Followers": "165",
        "Following": "221"
      },
      {
        "Date": "1553810761",
        "HumanDate": "29-03-2019-00-06",
        "Followers": "165",
        "Following": "221"
      },
      {
        "Date": "1553893561",
        "HumanDate": "30-03-2019-00-06",
        "Followers": "165",
        "Following": "221"
      },
      {
        "Date": "1553979961",
        "HumanDate": "31-03-2019-00-06",
        "Followers": "165",
        "Following": "221"
      },
      {
        "Date": "1554066361",
        "HumanDate": "01-04-2019-00-06",
        "Followers": "165",
        "Following": "221"
      },
      {
        "Date": "1554152761",
        "HumanDate": "02-04-2019-00-06",
        "Followers": "165",
        "Following": "221"
      },
      {
        "Date": "1554239161",
        "HumanDate": "03-04-2019-00-06",
        "Followers": "165",
        "Following": "221"
      },
      {
        "Date": "1554325561",
        "HumanDate": "04-04-2019-00-06",
        "Followers": "165",
        "Following": "221"
      },
      {
        "Date": "1554411961",
        "HumanDate": "05-04-2019-00-06",
        "Followers": "165",
        "Following": "221"
      },
      {
        "Date": "1554498361",
        "HumanDate": "06-04-2019-00-06",
        "Followers": "165",
        "Following": "221"
      },
      {
        "Date": "1554584761",
        "HumanDate": "07-04-2019-00-06",
        "Followers": "165",
        "Following": "221"
      },
      {
        "Date": "1554671161",
        "HumanDate": "08-04-2019-00-06",
        "Followers": "165",
        "Following": "221"
      },
      {
        "Date": "1554757561",
        "HumanDate": "09-04-2019-00-06",
        "Followers": "165",
        "Following": "221"
      },
      {
        "Date": "1554843961",
        "HumanDate": "10-04-2019-00-06",
        "Followers": "165",
        "Following": "221"
      },
      {
        "Date": "1554930361",
        "HumanDate": "11-04-2019-00-06",
        "Followers": "165",
        "Following": "221"
      },
      {
        "Date": "1555016761",
        "HumanDate": "12-04-2019-00-06",
        "Followers": "165",
        "Following": "221"
      },
      {
        "Date": "1555103161",
        "HumanDate": "13-04-2019-00-06",
        "Followers": "165",
        "Following": "221"
      },
      {
        "Date": "1555189561",
        "HumanDate": "14-04-2019-00-06",
        "Followers": "165",
        "Following": "221"
      },
      {
        "Date": "1555275961",
        "HumanDate": "15-04-2019-00-06",
        "Followers": "165",
        "Following": "221"
      },
      {
        "Date": "1555362361",
        "HumanDate": "16-04-2019-00-06",
        "Followers": "165",
        "Following": "221"
      },
      {
        "Date": "1555448761",
        "HumanDate": "17-04-2019-00-06",
        "Followers": "165",
        "Following": "221"
      },
      {
        "Date": "1555535161",
        "HumanDate": "18-04-2019-00-06",
        "Followers": "165",
        "Following": "221"
      },
      {
        "Date": "1555621561",
        "HumanDate": "19-04-2019-00-06",
        "Followers": "165",
        "Following": "221"
      },
      {
        "Date": "1555707961",
        "HumanDate": "20-04-2019-00-06",
        "Followers": "165",
        "Following": "221"
      },
      {
        "Date": "1555794361",
        "HumanDate": "21-04-2019-00-06",
        "Followers": "165",
        "Following": "221"
      },
      {
        "Date": "1555880761",
        "HumanDate": "22-04-2019-00-06",
        "Followers": "165",
        "Following": "221"
      },
      {
        "Date": "1555967162",
        "HumanDate": "23-04-2019-00-06",
        "Followers": "165",
        "Following": "221"
      },
      {
        "Date": "1556053561",
        "HumanDate": "24-04-2019-00-06",
        "Followers": "165",
        "Following": "221"
      },
      {
        "Date": "1556139961",
        "HumanDate": "25-04-2019-00-06",
        "Followers": "165",
        "Following": "221"
      },
      {
        "Date": "1556226361",
        "HumanDate": "26-04-2019-00-06",
        "Followers": "165",
        "Following": "221"
      },
      {
        "Date": "1556312761",
        "HumanDate": "27-04-2019-00-06",
        "Followers": "165",
        "Following": "221"
      },
      {
        "Date": "1556399161",
        "HumanDate": "28-04-2019-00-06",
        "Followers": "165",
        "Following": "221"
      },
      {
        "Date": "1556485561",
        "HumanDate": "29-04-2019-00-06",
        "Followers": "165",
        "Following": "221"
      },
      {
        "Date": "1556571961",
        "HumanDate": "30-04-2019-00-06",
        "Followers": "165",
        "Following": "221"
      },
      {
        "Date": "1556658361",
        "HumanDate": "01-05-2019-00-06",
        "Followers": "165",
        "Following": "221"
      },
      {
        "Date": "1556744761",
        "HumanDate": "02-05-2019-00-06",
        "Followers": "165",
        "Following": "221"
      },
      {
        "Date": "1556831161",
        "HumanDate": "03-05-2019-00-06",
        "Followers": "165",
        "Following": "221"
      },
      {
        "Date": "1556917561",
        "HumanDate": "04-05-2019-00-06",
        "Followers": "165",
        "Following": "221"
      },
      {
        "Date": "1557003961",
        "HumanDate": "05-05-2019-00-06",
        "Followers": "165",
        "Following": "221"
      },
      {
        "Date": "1557090361",
        "HumanDate": "06-05-2019-00-06",
        "Followers": "165",
        "Following": "221"
      },
      {
        "Date": "1557176761",
        "HumanDate": "07-05-2019-00-06",
        "Followers": "165",
        "Following": "221"
      },
      {
        "Date": "1557263161",
        "HumanDate": "08-05-2019-00-06",
        "Followers": "165",
        "Following": "221"
      },
      {
        "Date": "1557349561",
        "HumanDate": "09-05-2019-00-06",
        "Followers": "165",
        "Following": "221"
      },
      {
        "Date": "1557435961",
        "HumanDate": "10-05-2019-00-06",
        "Followers": "165",
        "Following": "221"
      },
      {
        "Date": "1557522361",
        "HumanDate": "11-05-2019-00-06",
        "Followers": "165",
        "Following": "221"
      },
      {
        "Date": "1557608761",
        "HumanDate": "12-05-2019-00-06",
        "Followers": "165",
        "Following": "221"
      },
      {
        "Date": "1557695161",
        "HumanDate": "13-05-2019-00-06",
        "Followers": "165",
        "Following": "221"
      },
      {
        "Date": "1557781561",
        "HumanDate": "14-05-2019-00-06",
        "Followers": "165",
        "Following": "221"
      },
      {
        "Date": "1557867961",
        "HumanDate": "15-05-2019-00-06",
        "Followers": "165",
        "Following": "221"
      },
      {
        "Date": "1557954361",
        "HumanDate": "16-05-2019-00-06",
        "Followers": "165",
        "Following": "221"
      },
      {
        "Date": "1558040761",
        "HumanDate": "17-05-2019-00-06",
        "Followers": "165",
        "Following": "221"
      },
      {
        "Date": "1558127161",
        "HumanDate": "18-05-2019-00-06",
        "Followers": "165",
        "Following": "221"
      },
      {
        "Date": "1558213561",
        "HumanDate": "19-05-2019-00-06",
        "Followers": "165",
        "Following": "221"
      },
      {
        "Date": "1558299961",
        "HumanDate": "20-05-2019-00-06",
        "Followers": "165",
        "Following": "221"
      },
      {
        "Date": "1558386361",
        "HumanDate": "21-05-2019-00-06",
        "Followers": "165",
        "Following": "221"
      },
      {
        "Date": "1558472761",
        "HumanDate": "22-05-2019-00-06",
        "Followers": "165",
        "Following": "221"
      },
      {
        "Date": "1558559161",
        "HumanDate": "23-05-2019-00-06",
        "Followers": "165",
        "Following": "221"
      },
      {
        "Date": "1558645561",
        "HumanDate": "24-05-2019-00-06",
        "Followers": "165",
        "Following": "221"
      },
      {
        "Date": "1558731961",
        "HumanDate": "25-05-2019-00-06",
        "Followers": "165",
        "Following": "221"
      },
      {
        "Date": "1558818361",
        "HumanDate": "26-05-2019-00-06",
        "Followers": "165",
        "Following": "221"
      },
      {
        "Date": "1558904761",
        "HumanDate": "27-05-2019-00-06",
        "Followers": "165",
        "Following": "221"
      },
      {
        "Date": "1558991161",
        "HumanDate": "28-05-2019-00-06",
        "Followers": "165",
        "Following": "221"
      },
      {
        "Date": "1559077561",
        "HumanDate": "29-05-2019-00-06",
        "Followers": "165",
        "Following": "221"
      },
      {
        "Date": "1559163961",
        "HumanDate": "30-05-2019-00-06",
        "Followers": "165",
        "Following": "221"
      },
      {
        "Date": "1559250361",
        "HumanDate": "31-05-2019-00-06",
        "Followers": "165",
        "Following": "221"
      },
      {
        "Date": "1559336761",
        "HumanDate": "01-06-2019-00-06",
        "Followers": "165",
        "Following": "221"
      },
      {
        "Date": "1559423161",
        "HumanDate": "02-06-2019-00-06",
        "Followers": "165",
        "Following": "221"
      },
      {
        "Date": "1559509561",
        "HumanDate": "03-06-2019-00-06",
        "Followers": "165",
        "Following": "221"
      },
      {
        "Date": "1559595961",
        "HumanDate": "04-06-2019-00-06",
        "Followers": "165",
        "Following": "221"
      },
      {
        "Date": "1559682361",
        "HumanDate": "05-06-2019-00-06",
        "Followers": "165",
        "Following": "221"
      },
      {
        "Date": "1559768761",
        "HumanDate": "06-06-2019-00-06",
        "Followers": "165",
        "Following": "221"
      },
      {
        "Date": "1559855161",
        "HumanDate": "07-06-2019-00-06",
        "Followers": "165",
        "Following": "221"
      },
      {
        "Date": "1559941561",
        "HumanDate": "08-06-2019-00-06",
        "Followers": "165",
        "Following": "221"
      },
      {
        "Date": "1560027962",
        "HumanDate": "09-06-2019-00-06",
        "Followers": "165",
        "Following": "221"
      },
      {
        "Date": "1560114361",
        "HumanDate": "10-06-2019-00-06",
        "Followers": "165",
        "Following": "221"
      },
      {
        "Date": "1560200761",
        "HumanDate": "11-06-2019-00-06",
        "Followers": "165",
        "Following": "221"
      },
      {
        "Date": "1560287161",
        "HumanDate": "12-06-2019-00-06",
        "Followers": "165",
        "Following": "221"
      },
      {
        "Date": "1560373561",
        "HumanDate": "13-06-2019-00-06",
        "Followers": "165",
        "Following": "221"
      },
      {
        "Date": "1560459961",
        "HumanDate": "14-06-2019-00-06",
        "Followers": "165",
        "Following": "221"
      },
      {
        "Date": "1560546361",
        "HumanDate": "15-06-2019-00-06",
        "Followers": "165",
        "Following": "221"
      },
      {
        "Date": "1560632761",
        "HumanDate": "16-06-2019-00-06",
        "Followers": "165",
        "Following": "221"
      },
      {
        "Date": "1560719161",
        "HumanDate": "17-06-2019-00-06",
        "Followers": "165",
        "Following": "221"
      },
      {
        "Date": "1560805561",
        "HumanDate": "18-06-2019-00-06",
        "Followers": "165",
        "Following": "221"
      },
      {
        "Date": "1560891961",
        "HumanDate": "19-06-2019-00-06",
        "Followers": "165",
        "Following": "221"
      },
      {
        "Date": "1560978361",
        "HumanDate": "20-06-2019-00-06",
        "Followers": "165",
        "Following": "221"
      },
      {
        "Date": "1561064761",
        "HumanDate": "21-06-2019-00-06",
        "Followers": "165",
        "Following": "221"
      },
      {
        "Date": "1561151161",
        "HumanDate": "22-06-2019-00-06",
        "Followers": "165",
        "Following": "221"
      },
      {
        "Date": "1561237561",
        "HumanDate": "23-06-2019-00-06",
        "Followers": "165",
        "Following": "221"
      },
      {
        "Date": "1561323961",
        "HumanDate": "24-06-2019-00-06",
        "Followers": "165",
        "Following": "221"
      },
      {
        "Date": "1561410361",
        "HumanDate": "25-06-2019-00-06",
        "Followers": "165",
        "Following": "221"
      },
      {
        "Date": "1561496761",
        "HumanDate": "26-06-2019-00-06",
        "Followers": "165",
        "Following": "221"
      },
      {
        "Date": "1561583161",
        "HumanDate": "27-06-2019-00-06",
        "Followers": "165",
        "Following": "221"
      },
      {
        "Date": "1561669561",
        "HumanDate": "28-06-2019-00-06",
        "Followers": "165",
        "Following": "221"
      },
      {
        "Date": "1561755961",
        "HumanDate": "29-06-2019-00-06",
        "Followers": "165",
        "Following": "221"
      },
      {
        "Date": "1561842361",
        "HumanDate": "30-06-2019-00-06",
        "Followers": "165",
        "Following": "221"
      },
      {
        "Date": "1561928761",
        "HumanDate": "01-07-2019-00-06",
        "Followers": "165",
        "Following": "221"
      },
      {
        "Date": "1562015161",
        "HumanDate": "02-07-2019-00-06",
        "Followers": "165",
        "Following": "221"
      },
      {
        "Date": "1562101561",
        "HumanDate": "03-07-2019-00-06",
        "Followers": "165",
        "Following": "221"
      },
      {
        "Date": "1562187961",
        "HumanDate": "04-07-2019-00-06",
        "Followers": "165",
        "Following": "221"
      },
      {
        "Date": "1562274361",
        "HumanDate": "05-07-2019-00-06",
        "Followers": "165",
        "Following": "221"
      },
      {
        "Date": "1562360761",
        "HumanDate": "06-07-2019-00-06",
        "Followers": "165",
        "Following": "221"
      },
      {
        "Date": "1562447161",
        "HumanDate": "07-07-2019-00-06",
        "Followers": "165",
        "Following": "221"
      },
      {
        "Date": "1562533561",
        "HumanDate": "08-07-2019-00-06",
        "Followers": "165",
        "Following": "221"
      },
      {
        "Date": "1562619961",
        "HumanDate": "09-07-2019-00-06",
        "Followers": "165",
        "Following": "221"
      },
      {
        "Date": "1562706361",
        "HumanDate": "10-07-2019-00-06",
        "Followers": "165",
        "Following": "221"
      },
      {
        "Date": "1562792761",
        "HumanDate": "11-07-2019-00-06",
        "Followers": "165",
        "Following": "221"
      },
      {
        "Date": "1562879161",
        "HumanDate": "12-07-2019-00-06",
        "Followers": "165",
        "Following": "221"
      },
      {
        "Date": "1562965561",
        "HumanDate": "13-07-2019-00-06",
        "Followers": "165",
        "Following": "221"
      },
      {
        "Date": "1563051961",
        "HumanDate": "14-07-2019-00-06",
        "Followers": "165",
        "Following": "221"
      },
      {
        "Date": "1563138361",
        "HumanDate": "15-07-2019-00-06",
        "Followers": "165",
        "Following": "221"
      },
      {
        "Date": "1563224761",
        "HumanDate": "16-07-2019-00-06",
        "Followers": "165",
        "Following": "221"
      },
      {
        "Date": "1563311161",
        "HumanDate": "17-07-2019-00-06",
        "Followers": "165",
        "Following": "221"
      },
      {
        "Date": "1563397561",
        "HumanDate": "18-07-2019-00-06",
        "Followers": "165",
        "Following": "221"
      },
      {
        "Date": "1563483961",
        "HumanDate": "19-07-2019-00-06",
        "Followers": "165",
        "Following": "221"
      },
      {
        "Date": "1563570361",
        "HumanDate": "20-07-2019-00-06",
        "Followers": "165",
        "Following": "221"
      },
      {
        "Date": "1563656761",
        "HumanDate": "21-07-2019-00-06",
        "Followers": "165",
        "Following": "221"
      },
      {
        "Date": "1563743161",
        "HumanDate": "22-07-2019-00-06",
        "Followers": "165",
        "Following": "221"
      }
    ]
  }
}
