{
  "report": "1.0",
  "data": {
    "entries": [
      {
        "Date": "1550259200",
        "Followers": "8",
        "Following": "43"
      },
      {
        "Date": "1550295585",
        "Followers": "12",
        "Following": "130"
      },
      {
        "Date": "1550402101",
        "Followers": "30",
        "Following": "49"
      },
      {
        "Date": "1550440801",
        "Followers": "36",
        "Following": "54"
      },
      {
        "Date": "1550527201",
        "Followers": "52",
        "Following": "54"
      },
      {
        "Date": "1550613601",
        "Followers": "53",
        "Following": "42"
      },
      {
        "Date": "1550700001",
        "Followers": "56",
        "Following": "44"
      },
      {
        "Date": "1550786401",
        "Followers": "55",
        "Following": "44"
      },
      {
        "Date": "1551044426",
        "HumanDate": "24-02-2019-23-40",
        "Followers": "93",
        "Following": "204"
      },
      {
        "Date": "1551132601",
        "HumanDate": "26-02-2019-00-10",
        "Followers": "107",
        "Following": "179"
      },
      {
        "Date": "1551219001",
        "HumanDate": "27-02-2019-00-10",
        "Followers": "110",
        "Following": "78"
      },
      {
        "Date": "1551305402",
        "HumanDate": "28-02-2019-00-10",
        "Followers": "120",
        "Following": "92"
      },
      {
        "Date": "1551391801",
        "HumanDate": "01-03-2019-00-10",
        "Followers": "132",
        "Following": "89"
      },
      {
        "Date": "1551478201",
        "HumanDate": "02-03-2019-00-10",
        "Followers": "139",
        "Following": "80"
      },
      {
        "Date": "1551564601",
        "HumanDate": "03-03-2019-00-10",
        "Followers": "148",
        "Following": "74"
      },
      {
        "Date": "1551651001",
        "HumanDate": "04-03-2019-00-10",
        "Followers": "155",
        "Following": "83"
      },
      {
        "Date": "1551737401",
        "HumanDate": "05-03-2019-00-10",
        "Followers": "162",
        "Following": "75"
      },
      {
        "Date": "1551823801",
        "HumanDate": "06-03-2019-00-10",
        "Followers": "165",
        "Following": "71"
      },
      {
        "Date": "1551910201",
        "HumanDate": "07-03-2019-00-10",
        "Followers": "164",
        "Following": "66"
      },
      {
        "Date": "1551996601",
        "HumanDate": "08-03-2019-00-10",
        "Followers": "165",
        "Following": "221"
      },
      {
        "Date": "1552082761",
        "HumanDate": "09-03-2019-00-06",
        "Followers": "165",
        "Following": "221"
      },
      {
        "Date": "1552169161",
        "HumanDate": "10-03-2019-00-06",
        "Followers": "165",
        "Following": "221"
      },
      {
        "Date": "1552255561",
        "HumanDate": "11-03-2019-00-06",
        "Followers": "165",
        "Following": "221"
      },
      {
        "Date": "1552341961",
        "HumanDate": "12-03-2019-00-06",
        "Followers": "165",
        "Following": "221"
      },
      {
        "Date": "1552428361",
        "HumanDate": "13-03-2019-00-06",
        "Followers": "165",
        "Following": "221"
      }
    ]
  }
}
